Class Project Report
…
weatherData

## # A tibble: 2,768 x 9
##    STATION   NAME           DATE        PRCP  SNOW  SNWD  TMAX  TMIN TOBS 
##    <chr>     <chr>          <date>     <dbl> <dbl> <dbl> <int> <int> <chr>
##  1 USC00356~ PORTLAND WEAT~ 2011-01-01  0        0     0    33    29 <NA> 
##  2 USC00356~ PORTLAND WEAT~ 2011-01-02  0        0     0    35    28 <NA> 
##  3 USC00356~ PORTLAND WEAT~ 2011-01-03  0        0     0    36    27 <NA> 
##  4 USC00356~ PORTLAND WEAT~ 2011-01-04  0        0     0    35    27 <NA> 
##  5 USC00356~ PORTLAND WEAT~ 2011-01-05  0.36     0     0    39    31 <NA> 
##  6 USC00356~ PORTLAND WEAT~ 2011-01-06  0.01     0     0    47    38 <NA> 
##  7 USC00356~ PORTLAND WEAT~ 2011-01-07  0.23     0     0    47    32 <NA> 
##  8 USC00356~ PORTLAND WEAT~ 2011-01-08  0.02     0     0    41    29 <NA> 
##  9 USC00356~ PORTLAND WEAT~ 2011-01-09  0        0     0    41    34 <NA> 
## 10 USC00356~ PORTLAND WEAT~ 2011-01-10  0        0     0    41    34 <NA> 
## # ... with 2,758 more rows
…
